tezt/_regressions/007.007-PsDELPH1.seed.out

./tezos-codec encode 007-PsDELPH1.seed from '"0e5751c026e543b2e8ab2eb06099daa1d1e5df47778f7787faab45cdf12fe3a8"'
0e5751c026e543b2e8ab2eb06099daa1d1e5df47778f7787faab45cdf12fe3a8

./tezos-codec decode 007-PsDELPH1.seed from 0e5751c026e543b2e8ab2eb06099daa1d1e5df47778f7787faab45cdf12fe3a8
"0e5751c026e543b2e8ab2eb06099daa1d1e5df47778f7787faab45cdf12fe3a8"
