tezt/_regressions/007.007-PsDELPH1.delegate.balance_updates.out

./tezos-codec encode 007-PsDELPH1.delegate.balance_updates from '[
  {
    "kind": "contract",
    "contract": "tz1KqTpEZ7Yob7QbPE4Hy4Wo8fHG8LhKxZSx",
    "change": "0"
  }
]'
0000001f00000002298c03ed7d454a101eb7022bc95f7e5f41ac780000000000000000

./tezos-codec decode 007-PsDELPH1.delegate.balance_updates from 0000001f00000002298c03ed7d454a101eb7022bc95f7e5f41ac780000000000000000
[ { "kind": "contract", "contract": "tz1KqTpEZ7Yob7QbPE4Hy4Wo8fHG8LhKxZSx",
    "change": "0" } ]

./tezos-codec encode 007-PsDELPH1.delegate.balance_updates from '[
  {
    "kind": "contract",
    "contract": "KT1DieU51jzXLerQx5AqMCiLC1SsCeM8yRat",
    "change": "-1"
  }
]'
0000001f000138560805b4c8d7b7fbbafad5c59dbfa3878ca70500ffffffffffffffff

./tezos-codec decode 007-PsDELPH1.delegate.balance_updates from 0000001f000138560805b4c8d7b7fbbafad5c59dbfa3878ca70500ffffffffffffffff
[ { "kind": "contract", "contract": "KT1DieU51jzXLerQx5AqMCiLC1SsCeM8yRat",
    "change": "-1" } ]

./tezos-codec encode 007-PsDELPH1.delegate.balance_updates from '[
  {
    "kind": "freezer",
    "category": "deposits",
    "delegate": "tz1KqTpEZ7Yob7QbPE4Hy4Wo8fHG8LhKxZSx",
    "cycle": 5,
    "change": "-1"
  }
]'
00000022030002298c03ed7d454a101eb7022bc95f7e5f41ac7800000005ffffffffffffffff

./tezos-codec decode 007-PsDELPH1.delegate.balance_updates from 00000022030002298c03ed7d454a101eb7022bc95f7e5f41ac7800000005ffffffffffffffff
[ { "kind": "freezer", "category": "deposits",
    "delegate": "tz1KqTpEZ7Yob7QbPE4Hy4Wo8fHG8LhKxZSx", "cycle": 5,
    "change": "-1" } ]

./tezos-codec encode 007-PsDELPH1.delegate.balance_updates from '[
  {
    "kind": "freezer",
    "category": "fees",
    "delegate": "tz1KqTpEZ7Yob7QbPE4Hy4Wo8fHG8LhKxZSx",
    "cycle": 2147483647,
    "change": "1"
  }
]'
00000022020002298c03ed7d454a101eb7022bc95f7e5f41ac787fffffff0000000000000001

./tezos-codec decode 007-PsDELPH1.delegate.balance_updates from 00000022020002298c03ed7d454a101eb7022bc95f7e5f41ac787fffffff0000000000000001
[ { "kind": "freezer", "category": "fees",
    "delegate": "tz1KqTpEZ7Yob7QbPE4Hy4Wo8fHG8LhKxZSx", "cycle": 2147483647,
    "change": "1" } ]

./tezos-codec encode 007-PsDELPH1.delegate.balance_updates from '[
  {
    "kind": "freezer",
    "category": "rewards",
    "delegate": "tz1KqTpEZ7Yob7QbPE4Hy4Wo8fHG8LhKxZSx",
    "cycle": 0,
    "change": "0"
  }
]'
00000022010002298c03ed7d454a101eb7022bc95f7e5f41ac78000000000000000000000000

./tezos-codec decode 007-PsDELPH1.delegate.balance_updates from 00000022010002298c03ed7d454a101eb7022bc95f7e5f41ac78000000000000000000000000
[ { "kind": "freezer", "category": "rewards",
    "delegate": "tz1KqTpEZ7Yob7QbPE4Hy4Wo8fHG8LhKxZSx", "cycle": 0,
    "change": "0" } ]
